{
 "CPD":{
   "Reconquista":{
     "racks" : {     
       "B16":[
          { "type": "shelf", "text": "07" , "U_pos": 32, "U_height": 4},
          { "type": "shelf", "text": "06" , "U_pos": 28, "U_height": 4},
          { "type": "shelf", "text": "05" , "U_pos": 24, "U_height": 4},
          { "type": "shelf", "text": "04" , "U_pos": 20, "U_height": 4},
          { "type": "shelf", "text": "00" , "U_pos": 16, "U_height": 4},
          { "type": "shelf", "text": "01" , "U_pos": 12, "U_height": 4},
          { "type": "shelf", "text": "10" , "U_pos": 8, "U_height": 4},
          { "type": "shelf", "text": "11" , "U_pos": 4, "U_height": 4}
       ],
       "B14" : [
          { "type": "shelf", "text": "49" , "U_pos": 40, "U_height": 4},
          { "type": "shelf", "text": "48" , "U_pos": 36, "U_height": 4},
          { "type": "shelf", "text": "47" , "U_pos": 32, "U_height": 4},
          { "type": "shelf", "text": "46" , "U_pos": 28, "U_height": 4},
          { "type": "shelf", "text": "45" , "U_pos": 24, "U_height": 4},
          { "type": "shelf", "text": "44" , "U_pos": 20, "U_height": 4},
          { "type": "shelf", "text": "43" , "U_pos": 16, "U_height": 4},
          { "type": "shelf", "text": "42" , "U_pos": 12, "U_height": 4},
          { "type": "shelf", "text": "41" , "U_pos": 8,  "U_height": 4},
          { "type": "shelf", "text": "40" , "U_pos": 4, "U_height": 4}
       ],
       "B12" : [
          { "type": "shelf", "text": "32" , "U_pos": 40, "U_height": 4},
          { "type": "shelf", "text": "31" , "U_pos": 36, "U_height": 4},
          { "type": "shelf", "text": "30" , "U_pos": 32, "U_height": 4},
          { "type": "filer", "text": "6280" , "U_pos": 28, "U_height": 12},
          { "type": "shelf", "text": "03" , "U_pos": 16, "U_height": 4},
          { "type": "shelf", "text": "02" , "U_pos": 12, "U_height": 4},
          { "type": "shelf", "text": "08" , "U_pos": 8,  "U_height": 4},
          { "type": "shelf", "text": "09" , "U_pos": 4,  "U_height": 4}
       ],
       "B10" : [
          { "type": "shelf", "text": "20" , "U_pos": 40, "U_height": 4},
          { "type": "shelf", "text": "21" , "U_pos": 36, "U_height": 4},
          { "type": "shelf", "text": "22" , "U_pos": 32, "U_height": 4},
          { "type": "shelf", "text": "23" , "U_pos": 28, "U_height": 4},
          { "type": "shelf", "text": "24" , "U_pos": 24, "U_height": 4},
          { "type": "shelf", "text": "25" , "U_pos": 20, "U_height": 4},
          { "type": "shelf", "text": "26" , "U_pos": 16, "U_height": 4},
          { "type": "shelf", "text": "27" , "U_pos": 12, "U_height": 4},
          { "type": "shelf", "text": "28" , "U_pos": 8,  "U_height": 4},
          { "type": "shelf", "text": "29" , "U_pos": 4, "U_height": 4}
       ]
     }
   },
   "Venezuela":{
     "racks": {
       "r25" : [
          { "type": "shelf", "text": "46" , "U_pos": 28, "U_height": 4},
          { "type": "shelf", "text": "45" , "U_pos": 24, "U_height": 4},
          { "type": "shelf", "text": "44" , "U_pos": 20, "U_height": 4},
          { "type": "shelf", "text": "43" , "U_pos": 16, "U_height": 4},
          { "type": "shelf", "text": "42" , "U_pos": 12, "U_height": 4},
          { "type": "shelf", "text": "41" , "U_pos": 8,  "U_height": 4},
          { "type": "shelf", "text": "40" , "U_pos": 4,  "U_height": 4}
       ],
       "r24" : [
          { "type": "shelf", "text": "06" , "U_pos": 36, "U_height": 4},
          { "type": "shelf", "text": "05" , "U_pos": 32, "U_height": 4},
          { "type": "shelf", "text": "04" , "U_pos": 28, "U_height": 4},
          { "type": "shelf", "text": "03" , "U_pos": 24, "U_height": 4},
          { "type": "shelf", "text": "02" , "U_pos": 20, "U_height": 4},
          { "type": "shelf", "text": "00" , "U_pos": 16, "U_height": 4},
          { "type": "shelf", "text": "01" , "U_pos": 12, "U_height": 4},
          { "type": "shelf", "text": "10" , "U_pos": 8,  "U_height": 4},
          { "type": "shelf", "text": "11" , "U_pos": 4,  "U_height": 4}
       ],
       "r23" : [
          { "type": "shelf", "text": "30" , "U_pos": 36, "U_height": 4},
          { "type": "shelf", "text": "31" , "U_pos": 32, "U_height": 4},
          { "type": "filer", "text": "6280" , "U_pos": 28, "U_height": 12},
          { "type": "shelf", "text": "32" , "U_pos": 16, "U_height": 4},
          { "type": "shelf", "text": "33" , "U_pos": 12, "U_height": 4},
          { "type": "shelf", "text": "34" , "U_pos": 8,  "U_height": 4},
          { "type": "shelf", "text": "35" , "U_pos": 4,  "U_height": 4}
       ],
       "r22" : [
          { "type": "shelf", "text": "20" , "U_pos": 40, "U_height": 4},
          { "type": "shelf", "text": "21" , "U_pos": 36, "U_height": 4},
          { "type": "shelf", "text": "22" , "U_pos": 32, "U_height": 4},
          { "type": "shelf", "text": "23" , "U_pos": 28, "U_height": 4},
          { "type": "shelf", "text": "24" , "U_pos": 24, "U_height": 4},
          { "type": "shelf", "text": "25" , "U_pos": 20, "U_height": 4},
          { "type": "shelf", "text": "26" , "U_pos": 16, "U_height": 4},
          { "type": "shelf", "text": "27" , "U_pos": 12, "U_height": 4},
          { "type": "shelf", "text": "28" , "U_pos": 8,  "U_height": 4},
          { "type": "shelf", "text": "29" , "U_pos": 4,  "U_height": 4}
       ]
     }
   }
 }
}
